…
The result will look like the following:

``` r
res[[1]]
#> # A tibble: 206 × 19
#>    barcode baseMean log2FoldChange lfcSE   stat   pvalue     padj bc_type var_id
#>    <chr>      <dbl>          <dbl> <dbl>  <dbl>    <dbl>    <dbl> <fct>   <chr> 
#>  1 AACAAC…    1740.         -3.96  0.199 -19.9  7.10e-88 1.46e-85 pat1    chr1:…
#>  2 AACGCC…    3450.          0.662 0.192   3.44 5.71e- 4 5.89e- 2 common  chr18…
#>  3 AACACA…    1104.          0.502 0.167   3.00 2.68e- 3 1.84e- 1 pat1    chr15…
#>  4 AACAAG…    2306.          0.626 0.220   2.84 4.52e- 3 1.84e- 1 pat1    chr7:…
#>  5 AACACG…    1291.         -0.438 0.156  -2.82 4.85e- 3 1.84e- 1 pat1    chr4:…
#>  6 AACGAT…    1042.          0.488 0.176   2.78 5.47e- 3 1.84e- 1 common  chr1:…
#>  7 AACAAG…    2660.          0.423 0.158   2.68 7.42e- 3 1.84e- 1 pat1    chr7:…
#>  8 AACGAC…    2155.          0.426 0.160   2.66 7.87e- 3 1.84e- 1 common  chr9:…
#>  9 AACAGA…    1852.         -0.461 0.174  -2.65 8.12e- 3 1.84e- 1 pat1    chr9:…
#> 10 AACGAT…    2303.         -0.421 0.162  -2.60 9.38e- 3 1.84e- 1 common  ETV6-…
#> # ℹ 196 more rows
#> # ℹ 10 more variables: mut_id <chr>, pep_id <chr>, pep_type <chr>,
#> #   gene_name <chr>, gene_id <chr>, tx_id <chr>, tiled <chr>, n_tiles <dbl>,
#> #   nt <dbl>, peptide <chr>
```
…
