Co-culture screen • pepitope
…
The result will look like the following:

res[[1]]
#> # A tibble: 212 × 19
#>    barcode baseMean log2FoldChange lfcSE   stat   pvalue     padj bc_type var_id
#>    <chr>      <dbl>          <dbl> <dbl>  <dbl>    <dbl>    <dbl> <fct>   <chr> 
#>  1 AACAAC…     884.         -3.27  0.300 -10.9  1.63e-27 3.45e-25 pat1    chr1:…
#>  2 AACACC…    1015.         -2.09  0.352  -5.94 2.80e- 9 2.97e- 7 pat1    chr1:…
#>  3 AACAAC…    1766.         -0.708 0.239  -2.96 3.09e- 3 2.19e- 1 pat1    chr7:…
#>  4 AACGCG…    2802.          0.565 0.236   2.40 1.66e- 2 8.13e- 1 common  chr18…
#>  5 AACAAC…     961.         -0.605 0.261  -2.31 2.07e- 2 8.13e- 1 pat1    chr7:…
#>  6 AACAAC…     693.         -0.633 0.278  -2.27 2.30e- 2 8.13e- 1 pat1    chr2:…
#>  7 AACGCT…    1838.         -0.534 0.244  -2.19 2.87e- 2 8.59e- 1 common  CD74-…
#>  8 AACAGT…    1463.         -0.527 0.246  -2.14 3.24e- 2 8.59e- 1 pat1    RET--…
#>  9 AACGCG…    1638.         -0.472 0.242  -1.95 5.09e- 2 9.27e- 1 common  chr18…
#> 10 AACGAC…     613.         -0.540 0.285  -1.89 5.86e- 2 9.27e- 1 common  chr7:…
#> # ℹ 202 more rows
#> # ℹ 10 more variables: mut_id <chr>, pep_id <chr>, pep_type <chr>,
#> #   gene_name <chr>, gene_id <chr>, tx_id <chr>, tiled <chr>, n_tiles <dbl>,
#> #   nt <dbl>, peptide <chr>
…
